<?xml version="1.0" encoding="UTF-8" standalone="no"?>
<svg
   xmlns:dc="http://purl.org/dc/elements/1.1/"
   xmlns:cc="http://creativecommons.org/ns#"
   xmlns:rdf="http://www.w3.org/1999/02/22-rdf-syntax-ns#"
   xmlns:svg="http://www.w3.org/2000/svg"
   xmlns="http://www.w3.org/2000/svg"
   xmlns:sodipodi="http://sodipodi.sourceforge.net/DTD/sodipodi-0.dtd"
   xmlns:inkscape="http://www.inkscape.org/namespaces/inkscape"
   inkscape:version="1.0 (4035a4fb49, 2020-05-01)"
   sodipodi:docname="rcu-timeline.svg"
   id="svg8"
   version="1.1"
   viewBox="0 0 210 297"
   height="297mm"
   width="210mm">
  <defs
     id="defs2">
    <marker
       inkscape:isstock="true"
       style="overflow:visible;"
       id="marker1408"
       refX="0.0"
       refY="0.0"
       orient="auto"
       inkscape:stockid="Arrow1Lend">
      <path
         transform="scale(0.8) rotate(180) translate(12.5,0)"
         style="fill-rule:evenodd;stroke:#000000;stroke-width:1pt;stroke-opacity:1;fill:#000000;fill-opacity:1"
         d="M 0.0,0.0 L 5.0,-5.0 L -12.5,0.0 L 5.0,5.0 L 0.0,0.0 z "
         id="path1406" />
    </marker>
    <marker
       inkscape:isstock="true"
       style="overflow:visible;"
       id="Arrow1Lend"
       refX="0.0"
       refY="0.0"
       orient="auto"
       inkscape:stockid="Arrow1Lend">
      <path
         transform="scale(0.8) rotate(180) translate(12.5,0)"
         style="fill-rule:evenodd;stroke:#000000;stroke-width:1pt;stroke-opacity:1;fill:#000000;fill-opacity:1"
         d="M 0.0,0.0 L 5.0,-5.0 L -12.5,0.0 L 5.0,5.0 L 0.0,0.0 z "
         id="path1049" />
    </marker>
    <marker
       inkscape:isstock="true"
       style="overflow:visible"
       id="marker1324"
       refX="0.0"
       refY="0.0"
       orient="auto"
       inkscape:stockid="Arrow1Lstart">
      <path
         transform="scale(0.8) translate(12.5,0)"
         style="fill-rule:evenodd;stroke:#000000;stroke-width:1pt;stroke-opacity:1;fill:#000000;fill-opacity:1"
         d="M 0.0,0.0 L 5.0,-5.0 L -12.5,0.0 L 5.0,5.0 L 0.0,0.0 z "
         id="path1322" />
    </marker>
    <marker
       inkscape:isstock="true"
       style="overflow:visible"
       id="Arrow1Lstart"
       refX="0.0"
       refY="0.0"
       orient="auto"
       inkscape:stockid="Arrow1Lstart">
      <path
         transform="scale(0.8) translate(12.5,0)"
         style="fill-rule:evenodd;stroke:#000000;stroke-width:1pt;stroke-opacity:1;fill:#000000;fill-opacity:1"
         d="M 0.0,0.0 L 5.0,-5.0 L -12.5,0.0 L 5.0,5.0 L 0.0,0.0 z "
         id="path1046" />
    </marker>
  </defs>
  <sodipodi:namedview
     inkscape:window-maximized="1"
     inkscape:window-y="34"
     inkscape:window-x="0"
     inkscape:window-height="866"
     inkscape:window-width="1440"
     showgrid="false"
     inkscape:document-rotation="0"
     inkscape:current-layer="layer1"
     inkscape:document-units="mm"
     inkscape:cy="595.60365"
     inkscape:cx="394.00523"
     inkscape:zoom="0.75534352"
     inkscape:pageshadow="2"
     inkscape:pageopacity="0.0"
     borderopacity="1.0"
     bordercolor="#666666"
     pagecolor="#ffffff"
     id="base">
    <inkscape:grid
       id="grid62"
       type="xygrid" />
  </sodipodi:namedview>
  <metadata
     id="metadata5">
    <rdf:RDF>
      <cc:Work
         rdf:about="">
        <dc:format>image/svg+xml</dc:format>
        <dc:type
           rdf:resource="http://purl.org/dc/dcmitype/StillImage" />
      </cc:Work>
    </rdf:RDF>
  </metadata>
  <g
     id="layer1"
     inkscape:groupmode="layer"
     inkscape:label="Layer 1">
    <rect
       inkscape:export-ydpi="88.449997"
       inkscape:export-xdpi="88.449997"
       y="69.962914"
       x="19.919909"
       height="106.85517"
       width="37.91354"
       id="rect10"
       style="fill:#33ca33;fill-opacity:1;stroke:#000000;stroke-width:0.999999;stroke-linecap:round;stroke-opacity:1" />
    <rect
       inkscape:export-ydpi="88.449997"
       inkscape:export-xdpi="88.449997"
       style="fill:#c1cc35;fill-opacity:1;stroke:#000000;stroke-width:0.999999;stroke-linecap:round"
       id="rect10-3"
       width="95.92524"
       height="106.85517"
       x="57.833443"
       y="69.962914" />
    <rect
       inkscape:export-ydpi="88.449997"
       inkscape:export-xdpi="88.449997"
       style="fill:#cc3333;fill-opacity:1;stroke:#000000;stroke-width:0.999999;stroke-linecap:round"
       id="rect10-6"
       width="37.91354"
       height="106.85517"
       x="153.75867"
       y="69.962914" />
    <text
       inkscape:export-ydpi="88.449997"
       inkscape:export-xdpi="88.449997"
       id="text46"
       y="171.69417"
       x="97.975693"
       style="font-style:normal;font-weight:normal;font-size:7.05556px;line-height:1.25;font-family:sans-serif;letter-spacing:0px;word-spacing:0px;fill:#000000;fill-opacity:1;stroke:none;stroke-width:0.264583"
       xml:space="preserve"><tspan
         style="stroke-width:0.264583"
         y="171.69417"
         x="97.975693"
         id="tspan44"
         sodipodi:role="line">Wait</tspan></text>
    <text
       inkscape:export-ydpi="88.449997"
       inkscape:export-xdpi="88.449997"
       id="text50"
       y="171.69417"
       x="27.588812"
       style="font-style:normal;font-weight:normal;font-size:7.05556px;line-height:1.25;font-family:sans-serif;letter-spacing:0px;word-spacing:0px;fill:#000000;fill-opacity:1;stroke:none;stroke-width:0.264583"
       xml:space="preserve"><tspan
         style="stroke-width:0.264583"
         y="171.69417"
         x="27.588812"
         id="tspan48"
         sodipodi:role="line">&quot;Hide&quot;</tspan></text>
    <text
       inkscape:export-ydpi="88.449997"
       inkscape:export-xdpi="88.449997"
       id="text54"
       y="171.69417"
       x="160.96593"
       style="font-style:normal;font-weight:normal;font-size:7.05556px;line-height:1.25;font-family:sans-serif;letter-spacing:0px;word-spacing:0px;fill:#000000;fill-opacity:1;stroke:none;stroke-width:0.264583"
       xml:space="preserve"><tspan
         style="stroke-width:0.264583"
         y="171.69417"
         x="160.96593"
         id="tspan52"
         sodipodi:role="line">Delete</tspan></text>
    <rect
       inkscape:export-ydpi="88.449997"
       inkscape:export-xdpi="88.449997"
       y="141.87611"
       x="32.177486"
       height="9.7636757"
       width="86.678482"
       id="rect56"
       style="fill:#3358ca;fill-opacity:1;stroke:#000000;stroke-width:1;stroke-linecap:round" />
    <text
       inkscape:export-ydpi="88.449997"
       inkscape:export-xdpi="88.449997"
       id="text60"
       y="149.38829"
       x="62.685467"
       style="font-style:normal;font-weight:normal;font-size:7.05556px;line-height:1.25;font-family:sans-serif;letter-spacing:0px;word-spacing:0px;fill:#000000;fill-opacity:1;stroke:none;stroke-width:0.264583"
       xml:space="preserve"><tspan
         style="stroke-width:0.264583"
         y="149.38829"
         x="62.685467"
         id="tspan58"
         sodipodi:role="line">Reader</tspan></text>
    <rect
       inkscape:export-ydpi="88.449997"
       inkscape:export-xdpi="88.449997"
       style="fill:#335acc;fill-opacity:1;stroke:#000000;stroke-width:1;stroke-linecap:round"
       id="rect56-3"
       width="39.617504"
       height="9.7636757"
       x="16.590071"
       y="109.41482" />
    <text
       inkscape:export-ydpi="88.449997"
       inkscape:export-xdpi="88.449997"
       xml:space="preserve"
       style="font-style:normal;font-weight:normal;font-size:7.05556px;line-height:1.25;font-family:sans-serif;letter-spacing:0px;word-spacing:0px;fill:#000000;fill-opacity:1;stroke:none;stroke-width:0.264583"
       x="23.567558"
       y="116.92699"
       id="text60-5"><tspan
         sodipodi:role="line"
         id="tspan58-6"
         x="23.567558"
         y="116.92699"
         style="fill:#000000;fill-opacity:1;stroke-width:0.264583">Reader</tspan></text>
    <rect
       inkscape:export-ydpi="88.449997"
       inkscape:export-xdpi="88.449997"
       y="76.953537"
       x="156.24409"
       height="9.7636757"
       width="38.023815"
       id="rect56-3-9"
       style="fill:#33bfca;fill-opacity:1;stroke:#000000;stroke-width:1;stroke-linecap:round" />
    <text
       inkscape:export-ydpi="88.449997"
       inkscape:export-xdpi="88.449997"
       id="text60-5-1"
       y="84.465706"
       x="162.42474"
       style="font-style:normal;font-weight:normal;font-size:7.05556px;line-height:1.25;font-family:sans-serif;letter-spacing:0px;word-spacing:0px;fill:#000000;fill-opacity:1;stroke:none;stroke-width:0.264583"
       xml:space="preserve"><tspan
         style="stroke-width:0.264583"
         y="84.465706"
         x="162.42474"
         id="tspan58-6-2"
         sodipodi:role="line">Reader</tspan></text>
    <rect
       inkscape:export-ydpi="88.449997"
       inkscape:export-xdpi="88.449997"
       style="fill:#33c1cb;fill-opacity:1;stroke:#000000;stroke-width:0.999998;stroke-linecap:round"
       id="rect56-5"
       width="100.19345"
       height="9.7636757"
       x="63.906445"
       y="125.64547" />
    <text
       inkscape:export-ydpi="88.449997"
       inkscape:export-xdpi="88.449997"
       xml:space="preserve"
       style="font-style:normal;font-weight:normal;font-size:7.05556px;line-height:1.25;font-family:sans-serif;letter-spacing:0px;word-spacing:0px;fill:#000000;fill-opacity:1;stroke:none;stroke-width:0.264583"
       x="101.17191"
       y="133.15764"
       id="text60-7"><tspan
         sodipodi:role="line"
         id="tspan58-0"
         x="101.17191"
         y="133.15764"
         style="stroke-width:0.264583">Reader</tspan></text>
    <rect
       inkscape:export-ydpi="88.449997"
       inkscape:export-xdpi="88.449997"
       style="fill:#335acc;fill-opacity:1;stroke:#000000;stroke-width:1;stroke-linecap:round"
       id="rect56-7"
       width="112.75565"
       height="9.7636757"
       x="40.721241"
       y="93.184181" />
    <text
       inkscape:export-ydpi="88.449997"
       inkscape:export-xdpi="88.449997"
       id="text60-7-9"
       y="100.69635"
       x="84.267807"
       style="font-style:normal;font-weight:normal;font-size:7.05556px;line-height:1.25;font-family:sans-serif;letter-spacing:0px;word-spacing:0px;fill:#000000;fill-opacity:1;stroke:none;stroke-width:0.264583"
       xml:space="preserve"><tspan
         style="stroke-width:0.264583"
         y="100.69635"
         x="84.267807"
         id="tspan58-0-3"
         sodipodi:role="line">Reader</tspan></text>
    <path
       inkscape:export-ydpi="88.449997"
       inkscape:export-xdpi="88.449997"
       id="path1044"
       d="M 19.919906,182.10974 H 191.51286"
       style="fill:none;stroke:#000000;stroke-width:0.265;stroke-linecap:butt;stroke-linejoin:miter;stroke-miterlimit:4;stroke-dasharray:none;stroke-opacity:1;marker-end:url(#Arrow1Lend)" />
    <text
       inkscape:export-ydpi="88.449997"
       inkscape:export-xdpi="88.449997"
       id="text1390"
       y="190.81889"
       x="175.13564"
       style="font-style:normal;font-weight:normal;font-size:7.05556px;line-height:1.25;font-family:sans-serif;letter-spacing:0px;word-spacing:0px;fill:#000000;fill-opacity:1;stroke:none;stroke-width:0.264583"
       xml:space="preserve"><tspan
         style="stroke-width:0.264583"
         y="190.81889"
         x="175.13564"
         id="tspan1388"
         sodipodi:role="line">Time</tspan></text>
    <path
       inkscape:export-ydpi="88.449997"
       inkscape:export-xdpi="88.449997"
       id="path1404"
       d="M 14.628241,177.19021 V 69.962911"
       style="fill:none;stroke:#000000;stroke-width:0.264583px;stroke-linecap:butt;stroke-linejoin:miter;stroke-opacity:1;marker-end:url(#marker1408)" />
    <text
       inkscape:export-ydpi="88.449997"
       inkscape:export-xdpi="88.449997"
       id="text1454"
       y="80.039299"
       x="-16.388248"
       style="font-style:normal;font-weight:normal;font-size:7.05556px;line-height:1.25;font-family:sans-serif;letter-spacing:0px;word-spacing:0px;fill:#000000;fill-opacity:1;stroke:none;stroke-width:0.264583"
       xml:space="preserve"><tspan
         style="stroke-width:0.264583"
         y="80.039299"
         x="-16.388248"
         id="tspan1452"
         sodipodi:role="line">Threads</tspan></text>
    <g
       inkscape:export-ydpi="88.449997"
       inkscape:export-xdpi="88.449997"
       transform="translate(-3.2732158,-1.4657989)"
       id="g1515">
      <rect
         y="169.23985"
         x="198.3739"
         height="5.9436078"
         width="5.9436078"
         id="rect1456-6"
         style="fill:#33c2cc;fill-opacity:1;stroke:#000000;stroke-width:0.264999;stroke-linecap:round;stroke-miterlimit:4;stroke-dasharray:none;stroke-opacity:1" />
      <text
         xml:space="preserve"
         style="font-style:normal;font-weight:normal;font-size:7.05556px;line-height:1.25;font-family:sans-serif;letter-spacing:0px;word-spacing:0px;fill:#000000;fill-opacity:1;stroke:none;stroke-width:0.264583"
         x="206.37192"
         y="174.73347"
         id="text1475"><tspan
           sodipodi:role="line"
           id="tspan1473"
           x="206.37192"
           y="174.73347"
           style="stroke-width:0.264583">New</tspan></text>
      <g
         id="g1506"
         transform="translate(0,-3.1750001)">
        <rect
           y="163.24489"
           x="198.3739"
           height="5.9436078"
           width="5.9436078"
           id="rect1456"
           style="fill:#335acc;fill-opacity:1;stroke:#000000;stroke-width:0.264999;stroke-linecap:round;stroke-miterlimit:4;stroke-dasharray:none;stroke-opacity:1" />
        <text
           id="text1479"
           y="168.84703"
           x="206.6682"
           style="font-style:normal;font-weight:normal;font-size:7.05556px;line-height:1.25;font-family:sans-serif;letter-spacing:0px;word-spacing:0px;fill:#000000;fill-opacity:1;stroke:none;stroke-width:0.264583"
           xml:space="preserve"><tspan
             style="stroke-width:0.264583"
             y="168.84703"
             x="206.6682"
             id="tspan1477"
             sodipodi:role="line">Old</tspan></text>
      </g>
    </g>
  </g>
</svg>
